-------------------------------------------------------------------------------
Test set: de.hfu.ResidentRepositoryTest
-------------------------------------------------------------------------------
Tests run: 4, Failures: 1, Errors: 0, Skipped: 0, Time elapsed: 0.055 s <<< FAILURE! - in de.hfu.ResidentRepositoryTest
getUniqueResidentEasyMockTest  Time elapsed: 0.053 s  <<< FAILURE!
java.lang.AssertionError: 

Expected: "Schwar"
     but: was "Schwarz"
	at de.hfu.ResidentRepositoryTest.getUniqueResidentEasyMockTest(ResidentRepositoryTest.java:105)

